lab4.vcd
$date
	Fri May 15 19:43:43 2020
$end
$version
	Icarus Verilog
$end
$timescale
	1ps
$end
$scope module testbench $end
$var reg 1 ! clk $end
$var reg 1 " rst_n $end
$scope module CPU $end
$var wire 1 # Pcsrc $end
$var wire 1 ! clk_i $end
$var wire 1 " rst_i $end
$var wire 1 $ zero $end
$var wire 32 % writedata [31:0] $end
$var wire 32 & pcplusfour [31:0] $end
$var wire 32 ' pc_o [31:0] $end
$var wire 32 ( pc_i [31:0] $end
$var wire 32 ) muxpc [31:0] $end
$var wire 32 * muxdata [31:0] $end
$var wire 32 + memtoreg [31:0] $end
$var wire 32 , instrleft [31:0] $end
$var wire 32 - instradd [31:0] $end
$var wire 32 . instr [31:0] $end
$var wire 32 / ingen [31:0] $end
$var wire 1 0 blt $end
$var wire 1 1 bge $end
$var wire 1 2 RegWrite $end
$var wire 32 3 RTdata_o [31:0] $end
$var wire 32 4 RSdata_o [31:0] $end
$var wire 1 5 MemtoReg $end
$var wire 1 6 MemWrite $end
$var wire 1 7 MemRead $end
$var wire 2 8 Jump [1:0] $end
$var wire 32 9 DM_o [31:0] $end
$var wire 1 : Branch $end
$var wire 32 ; ALUresult [31:0] $end
$var wire 4 < ALU_CONTROL [3:0] $end
$var wire 1 = ALUSrc $end
$var wire 2 > ALUOp [1:0] $end
$scope module ALU_Ctrl $end
$var wire 4 ? instr [3:0] $end
$var wire 6 @ aluctrl [5:0] $end
$var wire 4 A ALU_Ctrl_o [3:0] $end
$var wire 2 B ALUOp [1:0] $end
$var reg 5 C ALU_Ctrl [4:0] $end
$upscope $end
$scope module Adder1 $end
$var wire 32 D src2_i [31:0] $end
$var wire 32 E sum_o [31:0] $end
$var wire 32 F src1_i [31:0] $end
$upscope $end
$scope module Adder2 $end
$var wire 32 G sum_o [31:0] $end
$var wire 32 H src2_i [31:0] $end
$var wire 32 I src1_i [31:0] $end
$upscope $end
$scope module Data_Memory $end
$var wire 1 ! clk_i $end
$var wire 32 J data_o [31:0] $end
$var wire 32 K data_i [31:0] $end
$var wire 32 L addr_i [31:0] $end
$var wire 1 6 MemWrite_i $end
$var wire 1 7 MemRead_i $end
$var integer 32 M i [31:0] $end
$upscope $end
$scope module Decoder $end
$var wire 7 N opcode [6:0] $end
$var wire 32 O instr_i [31:0] $end
$var wire 3 P funct3 [2:0] $end
$var wire 1 2 RegWrite $end
$var wire 1 5 MemtoReg $end
$var wire 1 6 MemWrite $end
$var wire 1 7 MemRead $end
$var wire 2 Q Jump [1:0] $end
$var wire 3 R Instr_field [2:0] $end
$var wire 9 S Ctrl_o [8:0] $end
$var wire 1 : Branch $end
$var wire 1 = ALUSrc $end
$var wire 2 T ALUOp [1:0] $end
$upscope $end
$scope module IM $end
$var wire 32 U instr_o [31:0] $end
$var wire 32 V addr_i [31:0] $end
$var integer 32 W i [31:0] $end
$upscope $end
$scope module ImmGen $end
$var wire 32 X instr_i [31:0] $end
$var wire 7 Y opcode [6:0] $end
$var wire 12 Z imm2 [11:0] $end
$var wire 12 [ imm [11:0] $end
$var wire 3 \ funct3 [2:0] $end
$var wire 32 ] Imm_Gen_o [31:0] $end
$upscope $end
$scope module Mux_ALUSrc $end
$var wire 32 ^ data1_i [31:0] $end
$var wire 1 = select_i $end
$var wire 32 _ data0_i [31:0] $end
$var reg 32 ` data_o [31:0] $end
$upscope $end
$scope module Mux_Jump $end
$var wire 2 a select_i [1:0] $end
$var wire 32 b data2_i [31:0] $end
$var wire 32 c data1_i [31:0] $end
$var wire 32 d data0_i [31:0] $end
$var reg 32 e data_o [31:0] $end
$upscope $end
$scope module Mux_MemtoReg $end
$var wire 32 f data1_i [31:0] $end
$var wire 1 5 select_i $end
$var wire 32 g data0_i [31:0] $end
$var reg 32 h data_o [31:0] $end
$upscope $end
$scope module Mux_PCSrc $end
$var wire 32 i data0_i [31:0] $end
$var wire 32 j data1_i [31:0] $end
$var wire 1 # select_i $end
$var reg 32 k data_o [31:0] $end
$upscope $end
$scope module Mux_Write $end
$var wire 32 l data0_i [31:0] $end
$var wire 32 m data1_i [31:0] $end
$var wire 32 n data2_i [31:0] $end
$var wire 2 o select_i [1:0] $end
$var reg 32 p data_o [31:0] $end
$upscope $end
$scope module PC $end
$var wire 1 ! clk_i $end
$var wire 32 q pc_i [31:0] $end
$var wire 1 " rst_i $end
$var reg 32 r pc_o [31:0] $end
$upscope $end
$scope module RF $end
$var wire 5 s RDaddr_i [4:0] $end
$var wire 32 t RDdata_i [31:0] $end
$var wire 5 u RSaddr_i [4:0] $end
$var wire 32 v RSdata_o [31:0] $end
$var wire 5 w RTaddr_i [4:0] $end
$var wire 32 x RTdata_o [31:0] $end
$var wire 1 2 RegWrite_i $end
$var wire 1 ! clk_i $end
$var wire 1 " rst_i $end
$upscope $end
$scope module SL1 $end
$var wire 32 y data_i [31:0] $end
$var reg 32 z data_o [31:0] $end
$upscope $end
$scope module alu $end
$var wire 4 { ALU_control [3:0] $end
$var wire 1 " rst_n $end
$var wire 32 | src1 [31:0] $end
$var wire 32 } src2 [31:0] $end
$var reg 1 1 bge $end
$var reg 1 0 blt $end
$var reg 32 ~ cout [31:0] $end
$var reg 1 !" overflow $end
$var reg 32 "" result [31:0] $end
$var reg 1 $ zero $end
$upscope $end
$upscope $end
$upscope $end
$enddefinitions $end
#0
$dumpvars
b0x ""
x!"
bx ~
bx }
bx |
b1110 {
bx z
bx y
bx x
bx w
bx v
bx u
bx t
bx s
bx r
bx q
bx p
bx o
b0 n
bx m
bx l
bx k
bx j
bx i
bx h
b0x g
bx f
bx e
bx d
bx c
bx b
bx a
bx `
bx _
bx ^
bx ]
bx \
bx [
bx Z
bx Y
bx X
b100000 W
bx V
bx U
bx T
b0xxxxxxxx S
bx R
bx Q
bx P
bx O
bx N
b10000000 M
b0x L
bx K
bx J
bx I
bx H
bx G
bx F
bx E
b100 D
b1110 C
bx B
b1110 A
bx @
bx ?
bx >
x=
b1110 <
b0x ;
x:
bx 9
bx 8
x7
x6
x5
bx 4
bx 3
x2
x1
x0
bx /
bx .
bx -
bx ,
bx +
bx *
bx )
bx (
bx '
bx &
bx %
x$
x#
0"
0!
$end
#25000
b1 %
b1 p
b1 t
b1 +
b1 h
b1 l
10
01
0$
b100 (
b100 e
b100 q
b1 *
b1 `
b1 }
b100 )
b100 d
b100 k
1=
12
b11 >
b11 B
b11 T
0#
0:
06
b10 -
b10 G
b10 j
b10 ,
b10 H
b10 c
b10 z
b0 9
b0 J
b0 f
b1 /
b1 ]
b1 ^
b1 y
b1 [
07
05
b10100011 S
b1 ;
b1 L
b1 g
b1 ""
b1 R
b10 <
b10 A
b10 {
b0 8
b0 Q
b0 a
b0 o
b10 C
b10011 Y
b0 \
b1 Z
b0 P
b10011 N
b110000 @
b0 ?
b101 s
b0 3
b0 K
b0 _
b0 x
b1 w
b0 4
b0 b
b0 v
b0 |
b0 u
b100000000001010010011 .
b100000000001010010011 O
b100000000001010010011 U
b100000000001010010011 X
b100 &
b100 E
b100 i
b100 m
b0 '
b0 F
b0 I
b0 V
b0 r
1!
#50000
0!
1"
#75000
b110 *
b110 `
b110 }
b1100 ,
b1100 H
b1100 c
b1100 z
b110 /
b110 ]
b110 ^
b110 y
b110 [
b111 %
b111 p
b111 t
b111 <
b111 A
b111 {
b111 +
b111 h
b111 l
b111 C
10
01
0$
b111 ;
b111 L
b111 g
b111 ""
b1000 (
b1000 e
b1000 q
b100 \
b110 Z
b100 P
b110100 @
b100 ?
b110 s
b110 w
b1 4
b1 b
b1 v
b1 |
b101 u
b1000 )
b1000 d
b1000 k
b11000101100001100010011 .
b11000101100001100010011 O
b11000101100001100010011 U
b11000101100001100010011 X
b10000 -
b10000 G
b10000 j
b1000 &
b1000 E
b1000 i
b1000 m
b100 '
b100 F
b100 I
b100 V
b100 r
1!
#100000
0!
#125000
10
01
0$
1=
12
b11 >
b11 B
b11 T
b10100011 S
b100 R
b1000 *
b1000 `
b1000 }
b10000 ,
b10000 H
b10000 c
b10000 z
b1000 /
b1000 ]
b1000 ^
b1000 y
b1000 [
b1100 %
b1100 p
b1100 t
b10 <
b10 A
b10 {
b1000 +
b1000 h
b1000 l
b1 8
b1 Q
b1 a
b1 o
b10 C
b1000 ;
b1000 L
b1000 g
b1000 ""
b10000 (
b10000 e
b10000 q
b1101111 Y
b0 \
b10000 Z
b0 P
b1101111 N
b110000 @
b0 ?
b1 s
b10000 w
b0 4
b0 b
b0 v
b0 |
b0 u
b1100 )
b1100 d
b1100 k
b1000000000000000011101111 .
b1000000000000000011101111 O
b1000000000000000011101111 U
b1000000000000000011101111 X
b11000 -
b11000 G
b11000 j
b1100 &
b1100 E
b1100 i
b1100 m
b1000 '
b1000 F
b1000 I
b1000 V
b1000 r
b0 3
b0 K
b0 _
b0 x
1!
#150000
0!
#175000
b111 +
b111 h
b111 l
0=
b100000 @
b10 >
b10 B
b10 T
10
01
0$
b111 ;
b111 L
b111 g
b111 ""
b100010 S
b111 *
b111 `
b111 }
b0 ,
b0 H
b0 c
b0 z
b0 /
b0 ]
b0 ^
b0 y
b0 [
b0 R
b10100 (
b10100 e
b10100 q
b0 8
b0 Q
b0 a
b0 o
b110011 Y
b110 Z
b110011 N
b111 s
b111 3
b111 K
b111 _
b111 x
b110 w
b111 u
b10100 )
b10100 d
b10100 k
b111 %
b111 p
b111 t
b11000111000001110110011 .
b11000111000001110110011 O
b11000111000001110110011 U
b11000111000001110110011 X
b10000 -
b10000 G
b10000 j
b10100 &
b10100 E
b10100 i
b10100 m
b10000 '
b10000 F
b10000 I
b10000 V
b10000 r
1!
#200000
0!
#225000
12
b11 >
b11 B
b11 T
b11111111111111111111111111111110 ,
b11111111111111111111111111111110 H
b11111111111111111111111111111110 c
b11111111111111111111111111111110 z
b11111111111111111111111111111111 /
b11111111111111111111111111111111 ]
b11111111111111111111111111111111 ^
b11111111111111111111111111111111 y
b111111111111 [
b1 R
1=
b10100011 S
b10 <
b10 A
b10 {
b110 %
b110 p
b110 t
b10 C
b11111111111111111111111111111111 *
b11111111111111111111111111111111 `
b11111111111111111111111111111111 }
b11000 (
b11000 e
b11000 q
b110 +
b110 h
b110 l
b10011 Y
b111111111111 Z
b10011 N
b111000 @
b1000 ?
b110 s
b0 3
b0 K
b0 _
b0 x
b11111 w
b110 u
b11000 )
b11000 d
b11000 k
10
01
0$
b110 ;
b110 L
b110 g
b110 ""
b11111111111100110000001100010011 .
b11111111111100110000001100010011 O
b11111111111100110000001100010011 U
b11111111111100110000001100010011 X
b10010 -
b10010 G
b10010 j
b11000 &
b11000 E
b11000 i
b11000 m
b10100 '
b10100 F
b10100 I
b10100 V
b10100 r
b111 4
b111 b
b111 v
b111 |
1!
#250000
0!
#275000
1#
00
11
1:
0=
02
b1 >
b1 B
b1 T
b101 S
b1 *
b1 `
b1 }
b11111111111111111111111111111000 ,
b11111111111111111111111111111000 H
b11111111111111111111111111111000 c
b11111111111111111111111111111000 z
b101 %
b101 p
b101 t
b11111111111111111111111111111100 /
b11111111111111111111111111111100 ]
b11111111111111111111111111111100 ^
b11111111111111111111111111111100 y
b111111111100 [
b11 R
b110 <
b110 A
b110 {
b101 +
b101 h
b101 l
b110 C
b10000 (
b10000 e
b10000 q
b101 ;
b101 L
b101 g
b101 ""
b1100011 Y
b101 \
b111111100101 Z
b101 P
b1100011 N
b11101 @
b1101 ?
b11001 s
b1 3
b1 K
b1 _
b1 x
b101 w
b10000 )
b10000 d
b10000 k
b110 4
b110 b
b110 v
b110 |
b11111110010100110101110011100011 .
b11111110010100110101110011100011 O
b11111110010100110101110011100011 U
b11111110010100110101110011100011 X
b10000 -
b10000 G
b10000 j
b11100 &
b11100 E
b11100 i
b11100 m
b11000 '
b11000 F
b11000 I
b11000 V
b11000 r
1!
#300000
0!
#325000
b10 <
b10 A
b10 {
b10 C
12
0:
b10 >
b10 B
b10 T
b100010 S
0#
b0 ,
b0 H
b0 c
b0 z
b1101 %
b1101 p
b1101 t
b0 /
b0 ]
b0 ^
b0 y
b0 [
b0 R
b1101 +
b1101 h
b1101 l
b110 *
b110 `
b110 }
b1101 ;
b1101 L
b1101 g
b1101 ""
b10100 (
b10100 e
b10100 q
b110011 Y
b0 \
b110 Z
b0 P
b110011 N
b100000 @
b0 ?
b111 s
b110 3
b110 K
b110 _
b110 x
b110 w
b111 4
b111 b
b111 v
b111 |
b111 u
b10100 )
b10100 d
b10100 k
b11000111000001110110011 .
b11000111000001110110011 O
b11000111000001110110011 U
b11000111000001110110011 X
b10000 -
b10000 G
b10000 j
b10100 &
b10100 E
b10100 i
b10100 m
b10000 '
b10000 F
b10000 I
b10000 V
b10000 r
1!
#350000
0!
#375000
12
b11 >
b11 B
b11 T
10
01
b11111111111111111111111111111110 ,
b11111111111111111111111111111110 H
b11111111111111111111111111111110 c
b11111111111111111111111111111110 z
b11111111111111111111111111111111 /
b11111111111111111111111111111111 ]
b11111111111111111111111111111111 ^
b11111111111111111111111111111111 y
b111111111111 [
b1 R
1=
b10100011 S
b101 %
b101 p
b101 t
b10 <
b10 A
b10 {
b101 +
b101 h
b101 l
b10 C
b11111111111111111111111111111111 *
b11111111111111111111111111111111 `
b11111111111111111111111111111111 }
b11000 (
b11000 e
b11000 q
0$
b101 ;
b101 L
b101 g
b101 ""
b10011 Y
b111111111111 Z
b10011 N
b111000 @
b1000 ?
b110 s
b0 3
b0 K
b0 _
b0 x
b11111 w
b110 u
b11000 )
b11000 d
b11000 k
b110 4
b110 b
b110 v
b110 |
b11111111111100110000001100010011 .
b11111111111100110000001100010011 O
b11111111111100110000001100010011 U
b11111111111100110000001100010011 X
b10010 -
b10010 G
b10010 j
b11000 &
b11000 E
b11000 i
b11000 m
b10100 '
b10100 F
b10100 I
b10100 V
b10100 r
1!
#400000
0!
#425000
1#
00
11
1:
0=
02
b1 >
b1 B
b1 T
b101 S
b1 *
b1 `
b1 }
b11111111111111111111111111111000 ,
b11111111111111111111111111111000 H
b11111111111111111111111111111000 c
b11111111111111111111111111111000 z
b11111111111111111111111111111100 /
b11111111111111111111111111111100 ]
b11111111111111111111111111111100 ^
b11111111111111111111111111111100 y
b111111111100 [
b11 R
b110 <
b110 A
b110 {
b100 %
b100 p
b100 t
b110 C
b10000 (
b10000 e
b10000 q
b100 +
b100 h
b100 l
b1100011 Y
b101 \
b111111100101 Z
b101 P
b1100011 N
b11101 @
b1101 ?
b11001 s
b1 3
b1 K
b1 _
b1 x
b101 w
b10000 )
b10000 d
b10000 k
b100 ;
b100 L
b100 g
b100 ""
b11111110010100110101110011100011 .
b11111110010100110101110011100011 O
b11111110010100110101110011100011 U
b11111110010100110101110011100011 X
b10000 -
b10000 G
b10000 j
b11100 &
b11100 E
b11100 i
b11100 m
b11000 '
b11000 F
b11000 I
b11000 V
b11000 r
b101 4
b101 b
b101 v
b101 |
1!
#450000
0!
#475000
b10 <
b10 A
b10 {
b10 C
12
0:
b10 >
b10 B
b10 T
b100010 S
0#
b0 ,
b0 H
b0 c
b0 z
b10010 %
b10010 p
b10010 t
b0 /
b0 ]
b0 ^
b0 y
b0 [
b0 R
b10010 +
b10010 h
b10010 l
b101 *
b101 `
b101 }
b10010 ;
b10010 L
b10010 g
b10010 ""
b10100 (
b10100 e
b10100 q
b110011 Y
b0 \
b110 Z
b0 P
b110011 N
b100000 @
b0 ?
b111 s
b101 3
b101 K
b101 _
b101 x
b110 w
b1101 4
b1101 b
b1101 v
b1101 |
b111 u
b10100 )
b10100 d
b10100 k
b11000111000001110110011 .
b11000111000001110110011 O
b11000111000001110110011 U
b11000111000001110110011 X
b10000 -
b10000 G
b10000 j
b10100 &
b10100 E
b10100 i
b10100 m
b10000 '
b10000 F
b10000 I
b10000 V
b10000 r
1!
#500000
0!
#525000
12
b11 >
b11 B
b11 T
10
01
b11111111111111111111111111111110 ,
b11111111111111111111111111111110 H
b11111111111111111111111111111110 c
b11111111111111111111111111111110 z
b11111111111111111111111111111111 /
b11111111111111111111111111111111 ]
b11111111111111111111111111111111 ^
b11111111111111111111111111111111 y
b111111111111 [
b1 R
1=
b10100011 S
b10 <
b10 A
b10 {
b100 %
b100 p
b100 t
b10 C
b11111111111111111111111111111111 *
b11111111111111111111111111111111 `
b11111111111111111111111111111111 }
0$
b11000 (
b11000 e
b11000 q
b100 +
b100 h
b100 l
b10011 Y
b111111111111 Z
b10011 N
b111000 @
b1000 ?
b110 s
b0 3
b0 K
b0 _
b0 x
b11111 w
b110 u
b11000 )
b11000 d
b11000 k
b100 ;
b100 L
b100 g
b100 ""
b11111111111100110000001100010011 .
b11111111111100110000001100010011 O
b11111111111100110000001100010011 U
b11111111111100110000001100010011 X
b10010 -
b10010 G
b10010 j
b11000 &
b11000 E
b11000 i
b11000 m
b10100 '
b10100 F
b10100 I
b10100 V
b10100 r
b101 4
b101 b
b101 v
b101 |
1!
#550000
0!
#575000
1#
00
11
1:
0=
02
b1 >
b1 B
b1 T
b101 S
b1 *
b1 `
b1 }
b11111111111111111111111111111000 ,
b11111111111111111111111111111000 H
b11111111111111111111111111111000 c
b11111111111111111111111111111000 z
b11 %
b11 p
b11 t
b11111111111111111111111111111100 /
b11111111111111111111111111111100 ]
b11111111111111111111111111111100 ^
b11111111111111111111111111111100 y
b111111111100 [
b11 R
b110 <
b110 A
b110 {
b11 +
b11 h
b11 l
b110 C
b10000 (
b10000 e
b10000 q
b11 ;
b11 L
b11 g
b11 ""
b1100011 Y
b101 \
b111111100101 Z
b101 P
b1100011 N
b11101 @
b1101 ?
b11001 s
b1 3
b1 K
b1 _
b1 x
b101 w
b10000 )
b10000 d
b10000 k
b100 4
b100 b
b100 v
b100 |
b11111110010100110101110011100011 .
b11111110010100110101110011100011 O
b11111110010100110101110011100011 U
b11111110010100110101110011100011 X
b10000 -
b10000 G
b10000 j
b11100 &
b11100 E
b11100 i
b11100 m
b11000 '
b11000 F
b11000 I
b11000 V
b11000 r
1!
#600000
0!
#625000
b10 <
b10 A
b10 {
b10 C
12
0:
b10 >
b10 B
b10 T
b100010 S
0#
b0 ,
b0 H
b0 c
b0 z
b10110 %
b10110 p
b10110 t
b0 /
b0 ]
b0 ^
b0 y
b0 [
b0 R
b10110 +
b10110 h
b10110 l
b100 *
b100 `
b100 }
b10110 ;
b10110 L
b10110 g
b10110 ""
b10100 (
b10100 e
b10100 q
b110011 Y
b0 \
b110 Z
b0 P
b110011 N
b100000 @
b0 ?
b111 s
b100 3
b100 K
b100 _
b100 x
b110 w
b10010 4
b10010 b
b10010 v
b10010 |
b111 u
b10100 )
b10100 d
b10100 k
b11000111000001110110011 .
b11000111000001110110011 O
b11000111000001110110011 U
b11000111000001110110011 X
b10000 -
b10000 G
b10000 j
b10100 &
b10100 E
b10100 i
b10100 m
b10000 '
b10000 F
b10000 I
b10000 V
b10000 r
1!
#650000
0!
#675000
12
b11 >
b11 B
b11 T
10
01
b11111111111111111111111111111110 ,
b11111111111111111111111111111110 H
b11111111111111111111111111111110 c
b11111111111111111111111111111110 z
b11111111111111111111111111111111 /
b11111111111111111111111111111111 ]
b11111111111111111111111111111111 ^
b11111111111111111111111111111111 y
b111111111111 [
b1 R
1=
b10100011 S
b11 %
b11 p
b11 t
b10 <
b10 A
b10 {
b11 +
b11 h
b11 l
b10 C
b11111111111111111111111111111111 *
b11111111111111111111111111111111 `
b11111111111111111111111111111111 }
b11000 (
b11000 e
b11000 q
0$
b11 ;
b11 L
b11 g
b11 ""
b10011 Y
b111111111111 Z
b10011 N
b111000 @
b1000 ?
b110 s
b0 3
b0 K
b0 _
b0 x
b11111 w
b110 u
b11000 )
b11000 d
b11000 k
b100 4
b100 b
b100 v
b100 |
b11111111111100110000001100010011 .
b11111111111100110000001100010011 O
b11111111111100110000001100010011 U
b11111111111100110000001100010011 X
b10010 -
b10010 G
b10010 j
b11000 &
b11000 E
b11000 i
b11000 m
b10100 '
b10100 F
b10100 I
b10100 V
b10100 r
1!
#700000
0!
#725000
1#
00
11
1:
0=
02
b1 >
b1 B
b1 T
b101 S
b1 *
b1 `
b1 }
b11111111111111111111111111111000 ,
b11111111111111111111111111111000 H
b11111111111111111111111111111000 c
b11111111111111111111111111111000 z
b11111111111111111111111111111100 /
b11111111111111111111111111111100 ]
b11111111111111111111111111111100 ^
b11111111111111111111111111111100 y
b111111111100 [
b11 R
b110 <
b110 A
b110 {
b10 %
b10 p
b10 t
b110 C
b10000 (
b10000 e
b10000 q
b10 +
b10 h
b10 l
b1100011 Y
b101 \
b111111100101 Z
b101 P
b1100011 N
b11101 @
b1101 ?
b11001 s
b1 3
b1 K
b1 _
b1 x
b101 w
b10000 )
b10000 d
b10000 k
b10 ;
b10 L
b10 g
b10 ""
b11111110010100110101110011100011 .
b11111110010100110101110011100011 O
b11111110010100110101110011100011 U
b11111110010100110101110011100011 X
b10000 -
b10000 G
b10000 j
b11100 &
b11100 E
b11100 i
b11100 m
b11000 '
b11000 F
b11000 I
b11000 V
b11000 r
b11 4
b11 b
b11 v
b11 |
1!
#750000
0!
#775000
b10 <
b10 A
b10 {
b10 C
12
0:
b10 >
b10 B
b10 T
b100010 S
0#
b0 ,
b0 H
b0 c
b0 z
b11001 %
b11001 p
b11001 t
b0 /
b0 ]
b0 ^
b0 y
b0 [
b0 R
b11001 +
b11001 h
b11001 l
b11 *
b11 `
b11 }
b11001 ;
b11001 L
b11001 g
b11001 ""
b10100 (
b10100 e
b10100 q
b110011 Y
b0 \
b110 Z
b0 P
b110011 N
b100000 @
b0 ?
b111 s
b11 3
b11 K
b11 _
b11 x
b110 w
b10110 4
b10110 b
b10110 v
b10110 |
b111 u
b10100 )
b10100 d
b10100 k
b11000111000001110110011 .
b11000111000001110110011 O
b11000111000001110110011 U
b11000111000001110110011 X
b10000 -
b10000 G
b10000 j
b10100 &
b10100 E
b10100 i
b10100 m
b10000 '
b10000 F
b10000 I
b10000 V
b10000 r
1!
#800000
0!
#825000
12
b11 >
b11 B
b11 T
10
01
b11111111111111111111111111111110 ,
b11111111111111111111111111111110 H
b11111111111111111111111111111110 c
b11111111111111111111111111111110 z
b11111111111111111111111111111111 /
b11111111111111111111111111111111 ]
b11111111111111111111111111111111 ^
b11111111111111111111111111111111 y
b111111111111 [
b1 R
1=
b10100011 S
b10 <
b10 A
b10 {
b10 %
b10 p
b10 t
b10 C
b11111111111111111111111111111111 *
b11111111111111111111111111111111 `
b11111111111111111111111111111111 }
0$
b11000 (
b11000 e
b11000 q
b10 +
b10 h
b10 l
b10011 Y
b111111111111 Z
b10011 N
b111000 @
b1000 ?
b110 s
b0 3
b0 K
b0 _
b0 x
b11111 w
b110 u
b11000 )
b11000 d
b11000 k
b10 ;
b10 L
b10 g
b10 ""
b11111111111100110000001100010011 .
b11111111111100110000001100010011 O
b11111111111100110000001100010011 U
b11111111111100110000001100010011 X
b10010 -
b10010 G
b10010 j
b11000 &
b11000 E
b11000 i
b11000 m
b10100 '
b10100 F
b10100 I
b10100 V
b10100 r
b11 4
b11 b
b11 v
b11 |
1!
#850000
0!
#875000
1#
00
11
1:
0=
02
b1 >
b1 B
b1 T
b101 S
b1 *
b1 `
b1 }
b11111111111111111111111111111000 ,
b11111111111111111111111111111000 H
b11111111111111111111111111111000 c
b11111111111111111111111111111000 z
b1 %
b1 p
b1 t
b11111111111111111111111111111100 /
b11111111111111111111111111111100 ]
b11111111111111111111111111111100 ^
b11111111111111111111111111111100 y
b111111111100 [
b11 R
b110 <
b110 A
b110 {
b1 +
b1 h
b1 l
b110 C
b10000 (
b10000 e
b10000 q
b1 ;
b1 L
b1 g
b1 ""
b1100011 Y
b101 \
b111111100101 Z
b101 P
b1100011 N
b11101 @
b1101 ?
b11001 s
b1 3
b1 K
b1 _
b1 x
b101 w
b10000 )
b10000 d
b10000 k
b10 4
b10 b
b10 v
b10 |
b11111110010100110101110011100011 .
b11111110010100110101110011100011 O
b11111110010100110101110011100011 U
b11111110010100110101110011100011 X
b10000 -
b10000 G
b10000 j
b11100 &
b11100 E
b11100 i
b11100 m
b11000 '
b11000 F
b11000 I
b11000 V
b11000 r
1!
#900000
0!
#925000
b10 <
b10 A
b10 {
b10 C
12
0:
b10 >
b10 B
b10 T
b100010 S
0#
b0 ,
b0 H
b0 c
b0 z
b11011 %
b11011 p
b11011 t
b0 /
b0 ]
b0 ^
b0 y
b0 [
b0 R
b11011 +
b11011 h
b11011 l
b10 *
b10 `
b10 }
b11011 ;
b11011 L
b11011 g
b11011 ""
b10100 (
b10100 e
b10100 q
b110011 Y
b0 \
b110 Z
b0 P
b110011 N
b100000 @
b0 ?
b111 s
b10 3
b10 K
b10 _
b10 x
b110 w
b11001 4
b11001 b
b11001 v
b11001 |
b111 u
b10100 )
b10100 d
b10100 k
b11000111000001110110011 .
b11000111000001110110011 O
b11000111000001110110011 U
b11000111000001110110011 X
b10000 -
b10000 G
b10000 j
b10100 &
b10100 E
b10100 i
b10100 m
b10000 '
b10000 F
b10000 I
b10000 V
b10000 r
1!
#950000
0!
#975000
12
b11 >
b11 B
b11 T
10
01
b11111111111111111111111111111110 ,
b11111111111111111111111111111110 H
b11111111111111111111111111111110 c
b11111111111111111111111111111110 z
b11111111111111111111111111111111 /
b11111111111111111111111111111111 ]
b11111111111111111111111111111111 ^
b11111111111111111111111111111111 y
b111111111111 [
b1 R
1=
b10100011 S
b1 %
b1 p
b1 t
b10 <
b10 A
b10 {
b1 +
b1 h
b1 l
b10 C
b11111111111111111111111111111111 *
b11111111111111111111111111111111 `
b11111111111111111111111111111111 }
b11000 (
b11000 e
b11000 q
0$
b1 ;
b1 L
b1 g
b1 ""
b10011 Y
b111111111111 Z
b10011 N
b111000 @
b1000 ?
b110 s
b0 3
b0 K
b0 _
b0 x
b11111 w
b110 u
b11000 )
b11000 d
b11000 k
b10 4
b10 b
b10 v
b10 |
b11111111111100110000001100010011 .
b11111111111100110000001100010011 O
b11111111111100110000001100010011 U
b11111111111100110000001100010011 X
b10010 -
b10010 G
b10010 j
b11000 &
b11000 E
b11000 i
b11000 m
b10100 '
b10100 F
b10100 I
b10100 V
b10100 r
1!
#1000000
0!
#1025000
1#
00
11
1$
1:
0=
02
b1 >
b1 B
b1 T
b101 S
b1 *
b1 `
b1 }
b11111111111111111111111111111000 ,
b11111111111111111111111111111000 H
b11111111111111111111111111111000 c
b11111111111111111111111111111000 z
b11111111111111111111111111111100 /
b11111111111111111111111111111100 ]
b11111111111111111111111111111100 ^
b11111111111111111111111111111100 y
b111111111100 [
b11 R
b110 <
b110 A
b110 {
b0 %
b0 p
b0 t
b110 C
b10000 (
b10000 e
b10000 q
b0 +
b0 h
b0 l
b1100011 Y
b101 \
b111111100101 Z
b101 P
b1100011 N
b11101 @
b1101 ?
b11001 s
b1 3
b1 K
b1 _
b1 x
b101 w
b10000 )
b10000 d
b10000 k
b0 ;
b0 L
b0 g
b0 ""
b11111110010100110101110011100011 .
b11111110010100110101110011100011 O
b11111110010100110101110011100011 U
b11111110010100110101110011100011 X
b10000 -
b10000 G
b10000 j
b11100 &
b11100 E
b11100 i
b11100 m
b11000 '
b11000 F
b11000 I
b11000 V
b11000 r
b1 4
b1 b
b1 v
b1 |
1!
#1050000
0!
#1075000
b10 <
b10 A
b10 {
b10 C
12
0:
b10 >
b10 B
b10 T
b100010 S
b0 ,
b0 H
b0 c
b0 z
b11100 %
b11100 p
b11100 t
0#
b0 /
b0 ]
b0 ^
b0 y
b0 [
b0 R
b11100 +
b11100 h
b11100 l
0$
b11100 ;
b11100 L
b11100 g
b11100 ""
b10100 (
b10100 e
b10100 q
b110011 Y
b0 \
b110 Z
b0 P
b110011 N
b100000 @
b0 ?
b111 s
b110 w
b11011 4
b11011 b
b11011 v
b11011 |
b111 u
b10100 )
b10100 d
b10100 k
b11000111000001110110011 .
b11000111000001110110011 O
b11000111000001110110011 U
b11000111000001110110011 X
b10000 -
b10000 G
b10000 j
b10100 &
b10100 E
b10100 i
b10100 m
b10000 '
b10000 F
b10000 I
b10000 V
b10000 r
1!
#1100000
0!
#1125000
12
b11 >
b11 B
b11 T
10
01
b11111111111111111111111111111110 ,
b11111111111111111111111111111110 H
b11111111111111111111111111111110 c
b11111111111111111111111111111110 z
b11111111111111111111111111111111 /
b11111111111111111111111111111111 ]
b11111111111111111111111111111111 ^
b11111111111111111111111111111111 y
b111111111111 [
b1 R
1=
b10100011 S
b10 <
b10 A
b10 {
b0 %
b0 p
b0 t
b10 C
b11111111111111111111111111111111 *
b11111111111111111111111111111111 `
b11111111111111111111111111111111 }
0$
b11000 (
b11000 e
b11000 q
b0 +
b0 h
b0 l
b10011 Y
b111111111111 Z
b10011 N
b111000 @
b1000 ?
b110 s
b0 3
b0 K
b0 _
b0 x
b11111 w
b110 u
b11000 )
b11000 d
b11000 k
b0 ;
b0 L
b0 g
b0 ""
b11111111111100110000001100010011 .
b11111111111100110000001100010011 O
b11111111111100110000001100010011 U
b11111111111100110000001100010011 X
b10010 -
b10010 G
b10010 j
b11000 &
b11000 E
b11000 i
b11000 m
b10100 '
b10100 F
b10100 I
b10100 V
b10100 r
b1 4
b1 b
b1 v
b1 |
1!
#1150000
0!
